{
    "count": 163,
    "next": "https://ll.thespacedevs.com/2.0.0/event/?limit=1&offset=1",
    "previous": null,
    "results": [
        {
            "id": 77,
            "url": "https://ll.thespacedevs.com/2.0.0/event/77/",
            "slug": "2017-nasa-astronaut-class-graduation-ceremony",
            "name": "2017 NASA Astronaut class graduation ceremony",
            "type": {
                "id": 20,
                "name": "Press Event"
            },
            "description": "NASA will honor the first class of astronaut...",
            "location": "NASA's Johnson Space Center, Houston, TX, USA",
            "news_url": "https://www.nasa.gov/press-release/nasa-s-astronaut-candidates-to-graduate-with-eye-on-artemis-missions",
            "video_url": "https://www.youtube.com/watch?v=xo58EoT987M",
            "feature_image": "https://spacelaunchnow-prod-east.nyc3.digitaloceanspaces.com/media/event_images/20172520nasa2520astronaut2520class2520graduation2520ceremony_image_20191228100802.jpg",
            "date": "2020-01-10T15:30:00Z",
            "launches": [],
            "expeditions": [],
            "spacestations": [],
            "program": []
        }
    ]
}